…
    # "Food Services", "Retail Trade"

Mostly SF based businesses, no surprise.

    business_df %>%
      filter(
        naic_code_description %in% c("Food Services", "Retail Trade")
      ) %>%
      group_by(city) %>%
      count(sort = TRUE)

    ## # A tibble: 517 x 2
    ## # Groups:   city [517]
    ##    city                    n
    ##    <chr>               <int>
    ##  1 San Francisco       25865
    ##  2 Oakland               157
    ##  3 San+francisco         111
    ##  4 Daly City             101
    ##  5 Sf                     73
    ##  6 South San Francisco    52
    ##  7 San Jose               51
    ##  8 S San Fran             45
    ##  9 San Mateo              37
    ## 10 Hayward                36
    ## # … with 507 more rows
